Tidy time series & forecasting in R – index
…
A tsibble is a tibble for time series!

The quarterly visitors to Australia are found in the tourism dataset.

library(fpp3)
tourism

# A tsibble: 24,320 x 5 [1Q]
# Key:       Region, State, Purpose [304]
   Quarter Region   State           Purpose  Trips
     <qtr> <chr>    <chr>           <chr>    <dbl>
 1 1998 Q1 Adelaide South Australia Business  135.
 2 1998 Q2 Adelaide South Australia Business  110.
 3 1998 Q3 Adelaide South Australia Business  166.
 4 1998 Q4 Adelaide South Australia Business  127.
 5 1999 Q1 Adelaide South Australia Business  137.
 6 1999 Q2 Adelaide South Australia Business  200.
 7 1999 Q3 Adelaide South Australia Business  169.
 8 1999 Q4 Adelaide South Australia Business  134.
 9 2000 Q1 Adelaide South Australia Business  154.
10 2000 Q2 Adelaide South Australia Business  169.
# ℹ 24,310 more rows
…
# A tibble: 24,320 × 5
   Quarter Region   State           Purpose  Trips
     <qtr> <chr>    <chr>           <chr>    <dbl>
 1 1998 Q1 Adelaide South Australia Business  135.
 2 1998 Q2 Adelaide South Australia Business  110.
 3 1998 Q3 Adelaide South Australia Business  166.
 4 1998 Q4 Adelaide South Australia Business  127.
 5 1999 Q1 Adelaide South Australia Business  137.
 6 1999 Q2 Adelaide South Australia Business  200.
 7 1999 Q3 Adelaide South Australia Business  169.
 8 1999 Q4 Adelaide South Australia Business  134.
 9 2000 Q1 Adelaide South Australia Business  154.
10 2000 Q2 Adelaide South Australia Business  169.
# ℹ 24,310 more rows
…
pedestrian

# A tibble: 66,037 × 5
   Sensor         Date_Time           Date        Time Count
   <chr>          <dttm>              <date>     <int> <int>
 1 Birrarung Marr 2015-01-01 00:00:00 2015-01-01     0  1630
 2 Birrarung Marr 2015-01-01 01:00:00 2015-01-01     1   826
 3 Birrarung Marr 2015-01-01 02:00:00 2015-01-01     2   567
 4 Birrarung Marr 2015-01-01 03:00:00 2015-01-01     3   264
 5 Birrarung Marr 2015-01-01 04:00:00 2015-01-01     4   139
 6 Birrarung Marr 2015-01-01 05:00:00 2015-01-01     5    77
 7 Birrarung Marr 2015-01-01 06:00:00 2015-01-01     6    44
 8 Birrarung Marr 2015-01-01 07:00:00 2015-01-01     7    56
 9 Birrarung Marr 2015-01-01 08:00:00 2015-01-01     8   113
10 Birrarung Marr 2015-01-01 09:00:00 2015-01-01     9   166
# ℹ 66,027 more rows
…
Our first tsibble

A tsibble is a time series tibble.

It is created with as_tsibble().

tourism |> 
  as_tsibble(
    key = c(Region, State, Purpose),
    index = Quarter
  )

# A tsibble: 24,320 x 5 [1Q]
# Key:       Region, State, Purpose [304]
   Quarter Region   State           Purpose  Trips
     <qtr> <chr>    <chr>           <chr>    <dbl>
 1 1998 Q1 Adelaide South Australia Business  135.
 2 1998 Q2 Adelaide South Australia Business  110.
 3 1998 Q3 Adelaide South Australia Business  166.
 4 1998 Q4 Adelaide South Australia Business  127.
 5 1999 Q1 Adelaide South Australia Business  137.
 6 1999 Q2 Adelaide South Australia Business  200.
 7 1999 Q3 Adelaide South Australia Business  169.
 8 1999 Q4 Adelaide South Australia Business  134.
 9 2000 Q1 Adelaide South Australia Business  154.
10 2000 Q2 Adelaide South Australia Business  169.
# ℹ 24,310 more rows
…
